{
    "key": "group_5ef9bf1357eaf",
    "title": "Contact",
    "fields": [
        {
            "key": "field_5ef9bf182e01f",
            "label": "Contact",
            "name": "contact",
            "type": "clone",
            "instructions": "",
            "required": 0,
            "conditional_logic": 0,
            "wrapper": {
                "width": "",
                "class": "",
                "id": ""
            },
            "clone": [
                "group_5dcb6aee5bbe3"
            ],
            "display": "seamless",
            "layout": "block",
            "prefix_label": 0,
            "prefix_name": 0
        }
    ],
    "location": [
        [
            {
                "param": "page_template",
                "operator": "==",
                "value": "page-t-contact.php"
            }
        ],
        [
            {
                "param": "page_template",
                "operator": "==",
                "value": "page-t-leasing.php"
            }
        ]
    ],
    "menu_order": 0,
    "position": "normal",
    "style": "default",
    "label_placement": "top",
    "instruction_placement": "label",
    "hide_on_screen": "",
    "active": 1,
    "description": "",
    "modified": 1593585255
}